\relax 
\citation{case2014obaa}
\citation{case2014engineering}
\citation{case2013applying}
\select@language{english}
\@writefile{toc}{\select@language{english}}
\@writefile{lof}{\select@language{english}}
\@writefile{lot}{\select@language{english}}
\citation{case2014implementation}
\citation{faqiry2014privacy}
\bibstyle{abbrv}
\bibdata{sigproc}
\bibcite{case2014engineering}{1}
\bibcite{case2013applying}{2}
\bibcite{case2014obaa}{3}
\bibcite{case2014implementation}{4}
\bibcite{faqiry2014privacy}{5}
\global \c@l@stpage 4\relax \global \advance \c@l@stpage 0\relax 
